<svg width="25" height="25" viewBox="0 0 25 25" fill="none" xmlns="http://www.w3.org/2000/svg">
<path d="M10.8546 9.70644C11.819 8.66043 12.3503 7.25734 12.3503 5.75522C12.3503 2.89523 10.3075 0 6.40246 0C4.58513 0 3.05198 0.624205 1.96855 1.80509C1.00885 2.85126 0.480469 4.25404 0.480469 5.75522C0.480469 8.61552 2.51463 11.5106 6.40246 11.5106C8.22658 11.5107 9.76643 10.8869 10.8546 9.70644ZM6.40246 2.67599C8.54211 2.67599 9.51655 4.27322 9.51655 5.75725C9.51655 6.56452 9.24491 7.31183 8.75122 7.86127C8.20046 8.47495 7.40005 8.79945 6.43716 8.79945C4.2434 8.79945 3.24401 7.20237 3.24401 5.7185C3.24401 4.2043 4.22078 2.67599 6.40246 2.67599Z" fill="#FF7A00"/>
<path d="M20.6027 2.21936C20.2488 2.22575 19.7656 2.4464 19.5289 2.70954L1.96168 22.2412C1.72505 22.5045 1.89268 22.8736 2.24657 22.8736H4.54583C4.89972 22.8736 5.38241 22.6578 5.61865 22.3943L23.0773 2.86657C23.3135 2.6028 23.2978 2.17367 22.713 2.17383L20.6027 2.21936Z" fill="#FF7A00"/>
<path d="M18.6843 13.709C16.902 13.709 15.3979 14.3217 14.335 15.48C13.3936 16.5059 12.875 17.8823 12.875 19.3549C12.875 22.1605 14.8705 25.0007 18.6843 25.0007C20.4742 25.0007 21.9844 24.3886 23.052 23.2307C23.9982 22.2045 24.5192 20.8281 24.5192 19.3549C24.5192 16.5493 22.515 13.709 18.6843 13.709ZM18.7187 22.4098C16.5844 22.4098 15.6119 20.807 15.6119 19.3186C15.6119 18.5079 15.8834 17.7578 16.3767 17.2063C16.9266 16.5908 17.7245 16.2655 18.6843 16.2655C20.8188 16.2655 21.7909 17.868 21.7909 19.3569C21.7909 20.1674 21.5193 20.9177 21.0264 21.4692C20.4763 22.0845 19.6783 22.4098 18.7187 22.4098Z" fill="#FF7A00"/>
</svg>
